{
    "version": "v103.0.5060.66-r1002911",
    "description": "Stable Chromium builds for Windows with sync built by Hibbiki, installer edtion.",
    "homepage": "https://github.com/Hibbiki/",
    "license": "BSD",
    "architecture": {
        "64bit": {
            "url": "https://github.com/Hibbiki/chromium-win64/releases/download/v103.0.5060.66-r1002911/mini_installer.sync.exe",
            "hash": "sha1:8e58ec2225eb522640acfa28f4cda3af82b77dca"
        },
        "32bit": {
            "url": "https://github.com/Hibbiki/chromium-win32/releases/download/v103.0.5060.66-r1002911/mini_installer.sync.exe",
            "hash": "sha1:8e58ec2225eb522640acfa28f4cda3af82b77dca"
        }
    },
    "installer":{
        "file": "mini_installer.sync.exe"
    },
    "uninstaller": {
        "script": [
            "$versionShort = echo $version | ForEach-Object { ([string]$_).Split('v')[1] } | ForEach-Object { ([string]$_).Split('-')[0] }",
            "$uninstaller = echo $env:LOCALAPPDATA\\chromium\\Application\\$versionShort\\Installer\\setup.exe",
            "Start-Process $uninstaller -Args '--uninstall --force-uninstall' "
        ]
    }
}
